
kMeans
======

Number of iterations: 37
Within cluster sum of squared errors: 27388.907604739114
Missing values globally replaced with mean/mode

Cluster centroids:
                                              Cluster#
Attribute                        Full Data           0           1           2           3           4           5           6           7           8           9
                                   (13000)       (907)      (1110)      (1058)      (1470)       (692)      (1870)      (2019)       (805)      (1634)      (1435)
==================================================================================================================================================================
KM                                120.6505    225.8159     115.055    132.3006    114.5401    175.1402    113.7369     90.6023    172.0658     93.1695     83.6376
Marka                               1.6997       1.604      1.7042      1.7025         1.7       1.639      1.6912      1.7319      1.6625      1.7394      1.7252
Liczba.drzwi                        3.6586      3.8437      3.8307      3.8789       3.596      3.8009      3.5508      3.7003       3.724      3.7197      3.2175
Pojemnosc.skokowa                1963.8368   2966.6439    1893.282   1973.7297   1882.0476   2533.5896   1898.0364    1662.584   2688.1354   1644.6444   1653.0634
Przebieg.w.km                  139568.7739  93327.7453 121383.3523 129093.9594 155044.8776 119517.1185 159321.9193 140572.4705 146985.6832 135885.8562 157281.0307
Rodzaj.paliwa                       5.3339      5.4037      5.4714      5.4778      5.3595      5.4056      5.2582      5.3478      5.1636      5.3623      5.1588
Rok.produkcji                     2002.778   2007.0518   2005.5838   2005.6578   2001.6612    2005.685   2001.0535   2002.3452    2002.836   2003.0545   1998.0341
Pojazd.uszkodzony                   0.0488      0.0198      0.0523      0.0132      0.0061      0.1127      0.0727      0.0847      0.0534      0.0202      0.0523
Status.pojazdu.sprowadzonego      545.9636   2199.0759    469.4998    491.7588    378.2336    674.3687    385.8296    389.2052    635.1245    354.7017    307.1142
ABS                                 0.8752      0.9945      0.9955      0.9981       0.968      0.9899      0.9433      0.9133      0.9814      0.9412      0.1889
EDS                                 0.0678      0.4068      0.0784      0.1777      0.0231      0.1272      0.0155      0.0094      0.0509      0.0159      0.0007
ASR                                 0.2932      0.7905         0.7      0.6824      0.1755      0.6416      0.1209      0.0802      0.3516      0.1316      0.0049
X4x4                                0.0995      0.5028      0.0441       0.035      0.0837      0.2168      0.0797      0.0139      0.2472      0.0214      0.0467
Bezwypadkowy                        0.5605      0.9118      0.5901      0.8771      0.9224      0.1705      0.2305      0.2155      0.5043        0.91      0.4488
Garazowany                          0.4102      0.7321      0.0108       0.897      0.8374      0.1055      0.1187      0.0936      0.4484      0.7344       0.301
Pierwszy.wlasciciel                 0.4215       0.763      0.6739      0.7883      0.6449      0.1864      0.0813      0.1461      0.1839      0.7619      0.2014
Zabytkowy                           0.0019           0      0.0009           0      0.0007           0           0      0.0005      0.0025      0.0012      0.0125
Automat                             0.1602      0.7376      0.0495       0.087       0.051       0.448      0.0551      0.0342      0.7255      0.0312      0.0523
Ubezpieczenie                   24146.2938   24146.316  24146.3052  24146.3985  24146.4174  24146.2399  24146.3487  24146.2015  24146.2768  24146.3467  24146.1011
Przeglad                        24150.0404  24150.4591  24151.1635  24150.2979  24149.7515  24150.1174   24149.882  24149.8507  24149.8244  24150.2271  24149.3581
Anglik                              0.0062      0.0033      0.0054      0.0038      0.0034      0.0029      0.0123      0.0089      0.0124      0.0006      0.0063
Komputer.1                          0.5758      0.9846      0.9721      0.9612      0.5476      0.9624      0.4316      0.3675      0.8137      0.4688       0.039
klimatyzacja                        0.7999      0.9923      0.9874      0.9953      0.8864      0.9884      0.8631      0.7776      0.9801       0.806      0.0509
immobiliser                         0.8685      0.9901      0.9586       0.983      0.9163      0.9538      0.8802      0.8886      0.9056      0.9308      0.4125
radioCD                             0.8248      0.9868      0.9369      0.9839      0.9007      0.9523      0.8187      0.7439      0.9304      0.8721      0.3882
wspomaganie                         0.9336      0.9934      0.9793      0.9896      0.9898      0.9783      0.9866      0.9737      0.9839      0.9829      0.5303
ElSzyby                             0.8625      0.9901      0.9856      0.9981      0.9524      0.9827      0.9626      0.9099      0.9888      0.8856      0.1422
alufelgi                            0.5712      0.9868      0.6595      0.8336           1      0.9191           1           0      0.9068           0       0.147
autoalarm                                0           0           0           0           0           0           0           0           0           0           0
centralnyZamek                      0.9055       0.989      0.9838      0.9924      0.9782      0.9899      0.9759      0.9559      0.9826      0.9553      0.3498
ksenony                             0.1578      0.9316      0.0883      0.1512      0.0653      0.7182      0.0529      0.0074      0.2596      0.0116      0.0091
tempomat                            0.3314       0.935       0.645      0.8828      0.0918      0.8685      0.0733      0.0515      0.8919        0.06      0.0118
podgrzewaneFotele                   0.2223      0.9504      0.1126      0.3346       0.117      0.6994       0.107       0.048      0.6199      0.0526      0.0077
czujnikParkowania.1                 0.1838      0.8975      0.1649      0.4159       0.051      0.7803      0.0497      0.0357      0.0944       0.052      0.0084
swiatlaPrzeciwmglowe                     0           0           0           0           0           0           0           0           0           0           0
czujnikDeszczu                      0.2187      0.8765      0.3559       0.725      0.0435      0.7962      0.0513      0.0312      0.0596      0.0361      0.0035



[1] "index S:"
NULL
[1] "index G1:"
NULL
[1] "index G2:"
NULL
[1] "index G3:"
NULL
